<svg xmlns="http://www.w3.org/2000/svg" width="20px" height="12px" viewBox="0 0 20 12" zoomAndPan="disable">
    <rect x="0" y="0" width="20" height="2" style="fill:#fff;"/>
    <rect x="0" y="5" width="20" height="2" style="fill:#fff;"/>
    <rect x="0" y="10" width="20" height="2" style="fill:#fff;"/>
</svg>